


                     eT 1.3 - an electronic structure program

  ------------------------------------------------------------------------
   Author list in alphabetical order:
  ------------------------------------------------------------------------
   J. H. Andersen, A. Balbi, S. Coriani, S. D. Folkestad, T. Giovannini, 
   L. Goletto, T. S. Haugland, A. Hutcheson, I-M. Høyvik, E. F. Kjønstad, 
   H. Koch, T. Moitra, R. H. Myhre, A. C. Paul, S. Roet, M. Scavino, 
   A. Skeidsvoll, Å. H. Tveten
  ------------------------------------------------------------------------
   J. Chem. Phys. 152, 184103 (2020); https://doi.org/10.1063/5.0004713


   This is eT 1.3.0 Disco
  ------------------------------------------------------------
  Configuration date: 2021-06-07 12:48:33 UTC +02:00
  Git branch:         update-test-refs-new
  Git hash:           07052c810cfb89ed77f5f7b0b9d39be404f0338e
  Fortran compiler:   GNU 10.3.0
  C compiler:         GNU 10.3.0
  C++ compiler:       GNU 10.3.0
  LAPACK type:        MKL
  BLAS type:          MKL
  64-bit integers:    ON
  OpenMP:             ON
  PCM:                ON
  Forced batching:    OFF
  Runtime checks:     OFF
  ------------------------------------------------------------

  Calculation started: 2021-06-07 12:50:13 UTC +02:00


  :: Input file
  ================

     Note: geometry section is excluded from this print

     system
        name: HOF He
        charge: 0
     end system

     do
        excited state
     end do

     memory
        available: 8
     end memory

     method
        hf
        ccsd
     end method

     frozen orbitals
        core
     end frozen orbitals

     solver scf
        energy threshold:   1.0d-11
        gradient threshold: 1.0d-11
     end solver scf

     solver cholesky
        threshold: 1.0d-11
     end solver cholesky

     solver cc gs
        energy threshold: 1.0d-11
        omega threshold:  1.0d-11
     end solver cc gs

     solver cc es
        singlet states: 2
        residual threshold: 1.0d-11
        right eigenvectors
     end solver cc es


  Running on 2 OMP threads
  Memory available for calculation: 8.000000 GB


  :: RHF wavefunction
  ======================

     ==============================================================================
                                     Geometry (angstrom)
     ==============================================================================
        Atom           X                  Y                  Z         # in input
     ==============================================================================
        Basis: cc-pvdz
        1  H     0.866810000000     0.601440000000     5.000000000000        1
        2  F    -0.866810000000     0.601440000000     5.000000000000        2
        3  O     0.000000000000    -0.075790000000     5.000000000000        3
        4 He     0.000000000000     0.000000000000     7.500000000000        4
     ==============================================================================

     ==============================================================================
                                     Geometry (a.u.)
     ==============================================================================
        Atom           X                  Y                  Z         # in input
     ==============================================================================
        Basis: cc-pvdz
        1  H     1.638033502034     1.136556880358     9.448630622825        1
        2  F    -1.638033502034     1.136556880358     9.448630622825        2
        3  O     0.000000000000    -0.143222342981     9.448630622825        3
        4 He     0.000000000000     0.000000000000    14.172945934238        4
     ==============================================================================

  - Cholesky decomposition of AO overlap to get linearly independent AOs:

     Linear dependence threshold:             0.10E-05
     Number of atomic orbitals:               38
     Number of orthonormal atomic orbitals:   38

  - Molecular orbital details:

     Number of occupied orbitals:        10
     Number of virtual orbitals:         28
     Number of molecular orbitals:       38


  :: Hartree-Fock engine
  =========================

  Drives the calculation of the Hartree-Fock state.

  This is a RHF ground state calculation.
  The following tasks will be performed:

     1) Generate initial SAD density
     2) Calculation of reference state (SCF-DIIS algorithm)


  1) Generate initial SAD density


  2) Calculation of reference state (SCF-DIIS algorithm)

  - SCF solver settings:

     Maximum iterations:                   100
     Acceleration type:                   diis

     Residual threshold:            0.1000E-10
     Energy threshold:              0.1000E-10

  - Setting initial AO density to sad

     Energy of initial guess:              -178.316362504245
     Number of electrons in guess:           20.000000000000

  - Screening and integral thresholds:

     Coulomb screening threshold:    0.1000E-16
     Exchange screening threshold:   0.1000E-14
     ERI cutoff:                     0.1000E-16
     One-electron integral  cutoff:  0.1000E-21
     Cumulative Fock threshold:      0.1000E+01

  - DIIS tool settings:

     DIIS dimension:   8

     Storage (solver scf_e): memory
     Storage (solver scf_x): memory

  Iteration       Energy (a.u.)      Max(grad.)    Delta E (a.u.)
  ---------------------------------------------------------------
     1          -177.452442672057     0.7565E-01     0.1775E+03
     2          -177.479038695767     0.1346E-01     0.2660E-01
     3          -177.480034970238     0.4311E-02     0.9963E-03
     4          -177.480161392961     0.1845E-02     0.1264E-03
     5          -177.480175069916     0.3629E-03     0.1368E-04
     6          -177.480176290419     0.7402E-04     0.1221E-05
     7          -177.480176366127     0.2207E-04     0.7571E-07
     8          -177.480176376357     0.5096E-05     0.1023E-07
     9          -177.480176377182     0.1218E-05     0.8253E-09
    10          -177.480176377209     0.2536E-06     0.2677E-10
    11          -177.480176377210     0.4399E-07     0.9663E-12
    12          -177.480176377210     0.8545E-08     0.0000E+00
    13          -177.480176377210     0.2855E-08     0.0000E+00
    14          -177.480176377210     0.1321E-08     0.1137E-12
    15          -177.480176377210     0.3976E-09     0.2558E-12
    16          -177.480176377210     0.1465E-09     0.5684E-13
    17          -177.480176377210     0.5394E-10     0.2842E-13
    18          -177.480176377210     0.4754E-11     0.1137E-12
  ---------------------------------------------------------------
  Convergence criterion met in 18 iterations!

  - Summary of RHF wavefunction energetics (a.u.):

     HOMO-LUMO gap:                  0.600136348374
     Nuclear repulsion energy:      48.518317619727
     Electronic energy:           -225.998493996937
     Total energy:                -177.480176377210

  - Timings for the RHF ground state calculation

     Total wall time (sec):              0.80026
     Total cpu time (sec):               1.59109

  - Preparation for frozen core approximation

     There are 2 frozen core orbitals.


  :: CCSD wavefunction
  =======================

     Bath orbital(s):         False

   - Number of orbitals:

     Occupied orbitals:    8
     Virtual orbitals:     28
     Molecular orbitals:   36
     Atomic orbitals:      38

   - Number of ground state amplitudes:

     Single excitation amplitudes:  224
     Double excitation amplitudes:  25200


  :: Excited state coupled cluster engine
  ==========================================

  Calculates the coupled cluster excitation vectors and excitation energies

  This is a CCSD excited state calculation.
  The following tasks will be performed:

     1) Cholesky decomposition of the electron repulsion integrals
     2) Preparation of MO basis and integrals
     3) Calculation of the ground state (diis algorithm)
     4) Calculation of the excited state (davidson algorithm)


  1) Cholesky decomposition of the electron repulsion integrals

   - Cholesky decomposition of electronic repulsion integrals solver
  ---------------------------------------------------------------------

  Performs a Cholesky decomposition of the two-electron electronic repulsion 
  integrals in the atomic orbital basis,

  (ab|cd) = sum_J L_ab^J L_cd^J.

  Once the Cholesky basis has been determined, the vectors L^J are constructed 
  and stored to disk. These may either be used directly, or be transformed 
  to the MO basis for use in post-HF calculations. For more information, 
  see S. D. Folkestad, E. F. Kjønstad and H. Koch, JCP, 150(19), (2019)

  - Cholesky decomposition settings:

     Target threshold is:   0.10E-10
     Span factor:           0.10E-01
     Max qual:                  1000

  - Cholesky decomposition ao details:

     Total number of AOs:                    38
     Total number of shell pairs:           171
     Total number of AO pairs:              741

     Significant shell pairs:               161
     Significant AO pairs:                  697

     Construct shell pairs:                 171
     Construct AO pairs:                    741

  Iter.  #Sign. ao pairs / shell pairs   Max diagonal    #Qualified    #Cholesky    Cholesky array size
  -------------------------------------------------------------------------------------------------------
     1               671 /     150       0.53537E+01         194             49             32879
     2               524 /     128       0.52717E-01         398            155             81220
     3               484 /     114       0.52418E-03         303            243            117612
     4               362 /      92       0.51440E-05         311            363            131406
     5               218 /      52       0.49587E-07         221            476            103768
     6                 0 /       0       0.48539E-09         121            550                 0
  -------------------------------------------------------------------------------------------------------

  - Summary of Cholesky decomposition of electronic repulsion integrals:

     Final number of Cholesky vectors: 550

 - Testing the Cholesky decomposition decomposition electronic repulsion integrals:

     Maximal difference between approximate and actual diagonal:              0.9691E-11
     Minimal element of difference between approximate and actual diagonal:  -0.1084E-14

  - Settings for integral handling:

     Cholesky vectors in memory: True
     ERI matrix in memory:       False
     T1 ERI matrix in memory:    True

  - Finished decomposing the ERIs.

     Total wall time (sec):              0.35486
     Total cpu time (sec):               0.69905


  2) Preparation of MO basis and integrals


  3) Calculation of the ground state (diis algorithm)

   - DIIS coupled cluster ground state solver
  ----------------------------------------------

  A DIIS CC ground state amplitude equations solver. It uses an extrapolation 
  of previous quasi-Newton perturbation theory estimates of the next amplitudes. 
  See Helgaker et al., Molecular Electronic Structure Theory, Chapter 
  13.

  - CC ground state solver settings:

     Residual threshold:            0.1000E-10
     Energy threshold:              0.1000E-10
     Max number of iterations:      100

  - DIIS tool settings:

     DIIS dimension:   8

     Storage (cc_gs_diis_e): file
     Storage (cc_gs_diis_x): file

  Iteration    Energy (a.u.)        |omega|       Delta E (a.u.)
  ---------------------------------------------------------------
    1          -177.872596608752     0.1151E+00     0.1779E+03
    2          -177.882753274052     0.3104E-01     0.1016E-01
    3          -177.890909679143     0.8604E-02     0.8156E-02
    4          -177.892204056510     0.2760E-02     0.1294E-02
    5          -177.892065384083     0.9570E-03     0.1387E-03
    6          -177.892056795596     0.4192E-03     0.8588E-05
    7          -177.892054018508     0.1122E-03     0.2777E-05
    8          -177.892047224913     0.3138E-04     0.6794E-05
    9          -177.892047571417     0.8437E-05     0.3465E-06
   10          -177.892047713878     0.3224E-05     0.1425E-06
   11          -177.892047681724     0.1563E-05     0.3215E-07
   12          -177.892047749325     0.8036E-06     0.6760E-07
   13          -177.892047762599     0.2742E-06     0.1327E-07
   14          -177.892047768721     0.1014E-06     0.6122E-08
   15          -177.892047770219     0.2886E-07     0.1498E-08
   16          -177.892047769889     0.8796E-08     0.3296E-09
   17          -177.892047769751     0.2832E-08     0.1383E-09
   18          -177.892047769659     0.8420E-09     0.9206E-10
   19          -177.892047769621     0.3255E-09     0.3820E-10
   20          -177.892047769615     0.1053E-09     0.5542E-11
   21          -177.892047769616     0.3748E-10     0.5684E-12
   22          -177.892047769617     0.1557E-10     0.1336E-11
   23          -177.892047769617     0.9142E-11     0.1421E-12
  ---------------------------------------------------------------
  Convergence criterion met in 23 iterations!

  - Ground state summary:

     Final ground state energy (a.u.):  -177.892047769617

     Correlation energy (a.u.):           -0.411871392407

     Largest single amplitudes:
     -----------------------------------
        a       i         t(a,i)
     -----------------------------------
        1      7        0.020722743317
        3      7        0.009742717593
        4      5        0.006036762519
       14      7       -0.005942721481
        5      4        0.004933911403
       14      4       -0.004898142206
        4      8        0.004619091085
       10      5        0.004167125684
        6      7        0.004161669928
       22      6       -0.004118129086
     ------------------------------------

     Largest double amplitudes:
     --------------------------------------------------
        a      i       b      j         t(ai,bj)
     --------------------------------------------------
        1      7       1      7       -0.041653912117
        3      7       3      7       -0.038352481134
        1      7       3      7       -0.032380247310
        4      8       4      8       -0.031350482786
       16      3      16      3       -0.031232232241
       17      3      17      3       -0.031049851260
        2      6       2      6       -0.030347755339
        8      3       8      3       -0.028100184783
        1      4       1      7       -0.024554626571
        3      4       3      7       -0.021894141378
     --------------------------------------------------

  - Finished solving the CCSD ground state equations

     Total wall time (sec):              0.55288
     Total cpu time (sec):               1.10477


  4) Calculation of the excited state (davidson algorithm)
     Calculating right vectors

   - Davidson coupled cluster excited state solver
  ---------------------------------------------------

  A Davidson solver that calculates the lowest eigenvalues and the right 
  or left eigenvectors of the Jacobian matrix, A. The eigenvalue problem 
  is solved in a reduced space, the dimension of which is expanded until 
  the convergence criteria are met.

  A complete description of the algorithm can be found in E. R. Davidson, 
  J. Comput. Phys. 17, 87 (1975).

  - Settings for coupled cluster excited state solver (Davidson):

     Calculation type:    valence
     Excitation vectors:  right

     Residual threshold:            0.1000E-10

     Number of singlet states:               2
     Max number of iterations:             100

   - Davidson tool settings:

     Number of parameters:                25424
     Number of requested solutions:           2
     Max reduced space dimension:           100

     Storage (cc_es_davidson_trials): file
     Storage (cc_es_davidson_transforms): file

  Iteration:                  1
  Reduced space dimension:    2

   Root  Eigenvalue (Re)   Eigenvalue (Im)    |residual|   Delta E (Re)
  ------------------------------------------------------------------------
     1   0.360496012081    0.000000000000     0.5055E+00   0.3605E+00
     2   0.464192907435    0.000000000000     0.4878E+00   0.4642E+00
  ------------------------------------------------------------------------

  Iteration:                  2
  Reduced space dimension:    4

   Root  Eigenvalue (Re)   Eigenvalue (Im)    |residual|   Delta E (Re)
  ------------------------------------------------------------------------
     1   0.207824731278    0.000000000000     0.1120E+00   0.1527E+00
     2   0.328045521170    0.000000000000     0.1099E+00   0.1361E+00
  ------------------------------------------------------------------------

  Iteration:                  3
  Reduced space dimension:    6

   Root  Eigenvalue (Re)   Eigenvalue (Im)    |residual|   Delta E (Re)
  ------------------------------------------------------------------------
     1   0.203811218456    0.000000000000     0.4253E-01   0.4014E-02
     2   0.322562273588    0.000000000000     0.5125E-01   0.5483E-02
  ------------------------------------------------------------------------

  Iteration:                  4
  Reduced space dimension:    8

   Root  Eigenvalue (Re)   Eigenvalue (Im)    |residual|   Delta E (Re)
  ------------------------------------------------------------------------
     1   0.204492080350    0.000000000000     0.1668E-01   0.6809E-03
     2   0.321366281110    0.000000000000     0.2303E-01   0.1196E-02
  ------------------------------------------------------------------------

  Iteration:                  5
  Reduced space dimension:   10

   Root  Eigenvalue (Re)   Eigenvalue (Im)    |residual|   Delta E (Re)
  ------------------------------------------------------------------------
     1   0.204409686637    0.000000000000     0.4257E-02   0.8239E-04
     2   0.320950723142    0.000000000000     0.6375E-02   0.4156E-03
  ------------------------------------------------------------------------

  Iteration:                  6
  Reduced space dimension:   12

   Root  Eigenvalue (Re)   Eigenvalue (Im)    |residual|   Delta E (Re)
  ------------------------------------------------------------------------
     1   0.204350821486    0.000000000000     0.1631E-02   0.5887E-04
     2   0.320797355360    0.000000000000     0.2091E-02   0.1534E-03
  ------------------------------------------------------------------------

  Iteration:                  7
  Reduced space dimension:   14

   Root  Eigenvalue (Re)   Eigenvalue (Im)    |residual|   Delta E (Re)
  ------------------------------------------------------------------------
     1   0.204337923471    0.000000000000     0.8094E-03   0.1290E-04
     2   0.320773790980    0.000000000000     0.7046E-03   0.2356E-04
  ------------------------------------------------------------------------

  Iteration:                  8
  Reduced space dimension:   16

   Root  Eigenvalue (Re)   Eigenvalue (Im)    |residual|   Delta E (Re)
  ------------------------------------------------------------------------
     1   0.204347185479    0.000000000000     0.3374E-03   0.9262E-05
     2   0.320792680771    0.000000000000     0.2970E-03   0.1889E-04
  ------------------------------------------------------------------------

  Iteration:                  9
  Reduced space dimension:   18

   Root  Eigenvalue (Re)   Eigenvalue (Im)    |residual|   Delta E (Re)
  ------------------------------------------------------------------------
     1   0.204348284901    0.000000000000     0.1114E-03   0.1099E-05
     2   0.320792082556    0.000000000000     0.1270E-03   0.5982E-06
  ------------------------------------------------------------------------

  Iteration:                 10
  Reduced space dimension:   20

   Root  Eigenvalue (Re)   Eigenvalue (Im)    |residual|   Delta E (Re)
  ------------------------------------------------------------------------
     1   0.204347648192    0.000000000000     0.3333E-04   0.6367E-06
     2   0.320790843974    0.000000000000     0.6270E-04   0.1239E-05
  ------------------------------------------------------------------------

  Iteration:                 11
  Reduced space dimension:   22

   Root  Eigenvalue (Re)   Eigenvalue (Im)    |residual|   Delta E (Re)
  ------------------------------------------------------------------------
     1   0.204347733745    0.000000000000     0.1041E-04   0.8555E-07
     2   0.320791480878    0.000000000000     0.2368E-04   0.6369E-06
  ------------------------------------------------------------------------

  Iteration:                 12
  Reduced space dimension:   24

   Root  Eigenvalue (Re)   Eigenvalue (Im)    |residual|   Delta E (Re)
  ------------------------------------------------------------------------
     1   0.204347621981    0.000000000000     0.3480E-05   0.1118E-06
     2   0.320791375850    0.000000000000     0.7744E-05   0.1050E-06
  ------------------------------------------------------------------------

  Iteration:                 13
  Reduced space dimension:   26

   Root  Eigenvalue (Re)   Eigenvalue (Im)    |residual|   Delta E (Re)
  ------------------------------------------------------------------------
     1   0.204347578516    0.000000000000     0.1533E-05   0.4346E-07
     2   0.320791395595    0.000000000000     0.2439E-05   0.1974E-07
  ------------------------------------------------------------------------

  Iteration:                 14
  Reduced space dimension:   28

   Root  Eigenvalue (Re)   Eigenvalue (Im)    |residual|   Delta E (Re)
  ------------------------------------------------------------------------
     1   0.204347566562    0.000000000000     0.5862E-06   0.1195E-07
     2   0.320791400790    0.000000000000     0.7701E-06   0.5195E-08
  ------------------------------------------------------------------------

  Iteration:                 15
  Reduced space dimension:   30

   Root  Eigenvalue (Re)   Eigenvalue (Im)    |residual|   Delta E (Re)
  ------------------------------------------------------------------------
     1   0.204347564581    0.000000000000     0.1592E-06   0.1981E-08
     2   0.320791413565    0.000000000000     0.2438E-06   0.1278E-07
  ------------------------------------------------------------------------

  Iteration:                 16
  Reduced space dimension:   32

   Root  Eigenvalue (Re)   Eigenvalue (Im)    |residual|   Delta E (Re)
  ------------------------------------------------------------------------
     1   0.204347565229    0.000000000000     0.4116E-07   0.6480E-09
     2   0.320791411873    0.000000000000     0.9701E-07   0.1692E-08
  ------------------------------------------------------------------------

  Iteration:                 17
  Reduced space dimension:   34

   Root  Eigenvalue (Re)   Eigenvalue (Im)    |residual|   Delta E (Re)
  ------------------------------------------------------------------------
     1   0.204347565054    0.000000000000     0.1183E-07   0.1752E-09
     2   0.320791410697    0.000000000000     0.4517E-07   0.1176E-08
  ------------------------------------------------------------------------

  Iteration:                 18
  Reduced space dimension:   36

   Root  Eigenvalue (Re)   Eigenvalue (Im)    |residual|   Delta E (Re)
  ------------------------------------------------------------------------
     1   0.204347565036    0.000000000000     0.3951E-08   0.1807E-10
     2   0.320791410284    0.000000000000     0.1772E-07   0.4129E-09
  ------------------------------------------------------------------------

  Iteration:                 19
  Reduced space dimension:   38

   Root  Eigenvalue (Re)   Eigenvalue (Im)    |residual|   Delta E (Re)
  ------------------------------------------------------------------------
     1   0.204347565032    0.000000000000     0.1236E-08   0.3917E-11
     2   0.320791410213    0.000000000000     0.6060E-08   0.7056E-10
  ------------------------------------------------------------------------

  Iteration:                 20
  Reduced space dimension:   40

   Root  Eigenvalue (Re)   Eigenvalue (Im)    |residual|   Delta E (Re)
  ------------------------------------------------------------------------
     1   0.204347565031    0.000000000000     0.3301E-09   0.8153E-12
     2   0.320791410268    0.000000000000     0.2025E-08   0.5469E-10
  ------------------------------------------------------------------------

  Iteration:                 21
  Reduced space dimension:   42

   Root  Eigenvalue (Re)   Eigenvalue (Im)    |residual|   Delta E (Re)
  ------------------------------------------------------------------------
     1   0.204347565030    0.000000000000     0.8762E-10   0.1252E-11
     2   0.320791410238    0.000000000000     0.6758E-09   0.3048E-10
  ------------------------------------------------------------------------

  Iteration:                 22
  Reduced space dimension:   44

   Root  Eigenvalue (Re)   Eigenvalue (Im)    |residual|   Delta E (Re)
  ------------------------------------------------------------------------
     1   0.204347565030    0.000000000000     0.2269E-10   0.3170E-13
     2   0.320791410240    0.000000000000     0.2121E-09   0.2733E-11
  ------------------------------------------------------------------------

  Iteration:                 23
  Reduced space dimension:   46

   Root  Eigenvalue (Re)   Eigenvalue (Im)    |residual|   Delta E (Re)
  ------------------------------------------------------------------------
     1   0.204347565030    0.000000000000     0.6367E-11   0.9059E-13
     2   0.320791410240    0.000000000000     0.6624E-10   0.1087E-12
  ------------------------------------------------------------------------

  Iteration:                 24
  Reduced space dimension:   47

   Root  Eigenvalue (Re)   Eigenvalue (Im)    |residual|   Delta E (Re)
  ------------------------------------------------------------------------
     1   0.204347565030    0.000000000000     0.6367E-11   0.9992E-15
     2   0.320791410240    0.000000000000     0.2134E-10   0.2958E-12
  ------------------------------------------------------------------------

  Iteration:                 25
  Reduced space dimension:   48

   Root  Eigenvalue (Re)   Eigenvalue (Im)    |residual|   Delta E (Re)
  ------------------------------------------------------------------------
     1   0.204347565030    0.000000000000     0.6365E-11   0.2581E-14
     2   0.320791410240    0.000000000000     0.6866E-11   0.3791E-13
  ------------------------------------------------------------------------
  Convergence criterion met in 25 iterations!

  - Excitation vector amplitudes:

     Electronic state nr. 1

     Energy (Hartree):                  0.204347565030
     Fraction singles (|R1|/|R|):       0.973733019259

     Largest single amplitudes:
     -----------------------------------
        a       i         R(a,i)
     -----------------------------------
        1      8       -0.960282460645
        3      8       -0.136267410335
        2      8       -0.045780533279
        1      5       -0.045441573413
       13      8        0.024272277848
        6      8        0.023466675231
       12      8        0.022150894926
        3      5       -0.017607625921
        2      5       -0.012998836538
        1      3       -0.011946457623
     ------------------------------------

     Largest double amplitudes:
     --------------------------------------------------
        a      i       b      j         R(ai,bj)
     --------------------------------------------------
        1      7       1      8        0.112704655436
        3      7       1      8        0.066361947190
        1      4       1      8        0.064299347974
        1      8       4      8        0.037458184275
        1      2       1      8        0.036571460381
        3      4       1      8        0.034465613740
        1      5       2      6        0.033156965363
        1      6       1      8        0.030701974599
        4      5       1      8        0.028506269841
        1      5       4      8        0.028095542549
     --------------------------------------------------

     Electronic state nr. 2

     Energy (Hartree):                  0.320791410240
     Fraction singles (|R1|/|R|):       0.978712083484

     Largest single amplitudes:
     -----------------------------------
        a       i         R(a,i)
     -----------------------------------
        1      7       -0.967277845104
        1      4        0.085368745768
        3      7       -0.062151634603
        1      6        0.054204001993
        4      8        0.036500785835
        1      2        0.030024902648
        3      4        0.026487069874
       13      7        0.024512634268
        5      6       -0.023522985521
        9      7       -0.021237710487
     ------------------------------------

     Largest double amplitudes:
     --------------------------------------------------
        a      i       b      j         R(ai,bj)
     --------------------------------------------------
        1      7       1      7        0.093738102573
        1      7       3      7        0.060470846298
        1      4       1      7        0.041440027557
        1      7       2      7        0.032873766125
        1      4       2      6        0.031616412320
        7      6       1      7       -0.026836310424
        1      7       9      7       -0.025852455531
        2      6       1      7       -0.025802606090
        1      6       2      6       -0.023494131995
        2      1       1      4       -0.021908733085
     --------------------------------------------------

     - Electronic excitation energies:

                                      Excitation energy
                          ------------------------------------------
      State                (Hartree)             (eV)
     ---------------------------------------------------------------
        1                  0.204347565030        5.560580474277
        2                  0.320791410240        8.729178895954
     ---------------------------------------------------------------
     eV/Hartree (CODATA 2014): 27.21138602

  - Finished solving the CCSD excited state equations (right)

     Total wall time (sec):              0.67710
     Total cpu time (sec):               1.35652

  - Timings for the CCSD excited state calculation

     Total wall time (sec):              1.58532
     Total cpu time (sec):               3.16082

  ------------------------------------------------------------

  Peak memory usage during the execution of eT: 38.991376 MB

  Total wall time in eT (sec):              2.43608
  Total cpu time in eT (sec):               4.83828

  Calculation ended: 2021-06-07 12:50:16 UTC +02:00

  - Implementation references:

     eT: https://doi.org/10.1063/5.0004713
     Cholesky decomposition of ERIs: https://doi.org/10.1063/1.5083802

  eT terminated successfully!
