


                     eT 1.3 - an electronic structure program

  ------------------------------------------------------------------------
   Author list in alphabetical order:
  ------------------------------------------------------------------------
   J. H. Andersen, A. Balbi, S. Coriani, S. D. Folkestad, T. Giovannini, 
   L. Goletto, T. S. Haugland, A. Hutcheson, I-M. Høyvik, E. F. Kjønstad, 
   H. Koch, T. Moitra, R. H. Myhre, A. C. Paul, S. Roet, M. Scavino, 
   A. Skeidsvoll, Å. H. Tveten
  ------------------------------------------------------------------------
   J. Chem. Phys. 152, 184103 (2020); https://doi.org/10.1063/5.0004713


   This is eT 1.3.0 Disco
  ------------------------------------------------------------
  Configuration date: 2021-06-07 12:48:33 UTC +02:00
  Git branch:         update-test-refs-new
  Git hash:           07052c810cfb89ed77f5f7b0b9d39be404f0338e
  Fortran compiler:   GNU 10.3.0
  C compiler:         GNU 10.3.0
  C++ compiler:       GNU 10.3.0
  LAPACK type:        MKL
  BLAS type:          MKL
  64-bit integers:    ON
  OpenMP:             ON
  PCM:                ON
  Forced batching:    OFF
  Runtime checks:     OFF
  ------------------------------------------------------------

  Calculation started: 2021-06-07 12:51:38 UTC +02:00


  :: Input file
  ================

     Note: geometry section is excluded from this print

     system
        name: H2O He
        charge: 0
     end system

     do
        excited state
     end do

     memory
        available: 8
     end memory

     solver cholesky
        threshold: 1.0d-12
     end solver cholesky

     solver scf
        algorithm:          scf-diis
        energy threshold:   1.0d-12
        gradient threshold: 1.0d-12
     end solver scf

     method
        hf
        mlccsd
     end method

     solver cc gs
        omega threshold:  1.0d-12
        energy threshold: 1.0d-12
     end solver cc gs

     solver cc es
        algorithm:          davidson
        singlet states:     4
        residual threshold: 1.0d-12
        energy threshold:   1.0d-12
        right eigenvectors
     end solver cc es

     active atoms
        selection type: list
        ccsd: {3}
     end active atoms

     mlcc
        levels: cc2, ccsd
        ccsd orbitals: cholesky-pao
     end mlcc


  Running on 2 OMP threads
  Memory available for calculation: 8.000000 GB


  :: RHF wavefunction
  ======================

     ==============================================================================
                                     Geometry (angstrom)
     ==============================================================================
        Atom           X                  Y                  Z         # in input
     ==============================================================================
        Basis: cc-pvdz
        1  O     0.000000000000    -0.075790000000     5.000000000000        3
        2  H     0.866810000000     0.601440000000     5.000000000000        1
        3  H    -0.866810000000     0.601440000000     5.000000000000        2
        4 He     0.100000000000    -0.020000000000     7.530000000000        4
     ==============================================================================

     ==============================================================================
                                     Geometry (a.u.)
     ==============================================================================
        Atom           X                  Y                  Z         # in input
     ==============================================================================
        Basis: cc-pvdz
        1  O     0.000000000000    -0.143222342981     9.448630622825        3
        2  H     1.638033502034     1.136556880358     9.448630622825        1
        3  H    -1.638033502034     1.136556880358     9.448630622825        2
        4 He     0.188972612457    -0.037794522491    14.229637717975        4
     ==============================================================================

  - Cholesky decomposition of AO overlap to get linearly independent AOs:

     Linear dependence threshold:             0.10E-05
     Number of atomic orbitals:               29
     Number of orthonormal atomic orbitals:   29

  - Molecular orbital details:

     Number of occupied orbitals:         6
     Number of virtual orbitals:         23
     Number of molecular orbitals:       29


  :: Hartree-Fock engine
  =========================

  Drives the calculation of the Hartree-Fock state.

  This is a RHF ground state calculation.
  The following tasks will be performed:

     1) Generate initial SAD density
     2) Calculation of reference state (SCF-DIIS algorithm)


  1) Generate initial SAD density


  2) Calculation of reference state (SCF-DIIS algorithm)

  - SCF solver settings:

     Maximum iterations:                   100
     Acceleration type:                   diis

     Residual threshold:            0.1000E-11
     Energy threshold:              0.1000E-11

  - Setting initial AO density to sad

     Energy of initial guess:               -78.492022836315
     Number of electrons in guess:           12.000000000000

  - Screening and integral thresholds:

     Coulomb screening threshold:    0.1000E-17
     Exchange screening threshold:   0.1000E-15
     ERI cutoff:                     0.1000E-17
     One-electron integral  cutoff:  0.1000E-22
     Cumulative Fock threshold:      0.1000E+01

  - DIIS tool settings:

     DIIS dimension:   8

     Storage (solver scf_e): memory
     Storage (solver scf_x): memory

  Iteration       Energy (a.u.)      Max(grad.)    Delta E (a.u.)
  ---------------------------------------------------------------
     1           -78.796606592587     0.9053E-01     0.7880E+02
     2           -78.828675852655     0.7128E-01     0.3207E-01
     3           -78.843428154462     0.8290E-02     0.1475E-01
     4           -78.843809541675     0.2414E-02     0.3814E-03
     5           -78.843850846800     0.3301E-03     0.4131E-04
     6           -78.843851669326     0.5527E-04     0.8225E-06
     7           -78.843851692851     0.5865E-05     0.2353E-07
     8           -78.843851693557     0.2356E-05     0.7054E-09
     9           -78.843851693630     0.2071E-06     0.7383E-10
    10           -78.843851693631     0.1594E-07     0.4121E-12
    11           -78.843851693631     0.3322E-08     0.9948E-13
    12           -78.843851693631     0.1197E-08     0.4263E-13
    13           -78.843851693631     0.4264E-09     0.4263E-13
    14           -78.843851693631     0.1280E-09     0.7105E-13
    15           -78.843851693631     0.1479E-10     0.5684E-13
    16           -78.843851693631     0.2905E-11     0.2842E-13
    17           -78.843851693631     0.6424E-12     0.0000E+00
  ---------------------------------------------------------------
  Convergence criterion met in 17 iterations!

  - Summary of RHF wavefunction energetics (a.u.):

     HOMO-LUMO gap:                  0.645629080251
     Nuclear repulsion energy:      12.116100574587
     Electronic energy:            -90.959952268218
     Total energy:                 -78.843851693631

  - Timings for the RHF ground state calculation

     Total wall time (sec):              0.31856
     Total cpu time (sec):               0.61374


  :: MLCCSD wavefunction
  =========================

     Bath orbital(s):         False

   - Number of orbitals:

     Occupied orbitals:    6
     Virtual orbitals:     23
     Molecular orbitals:   29
     Atomic orbitals:      29


  :: Excited state coupled cluster engine
  ==========================================

  Calculates the coupled cluster excitation vectors and excitation energies

  This is a MLCCSD excited state calculation.
  The following tasks will be performed:

     1) Cholesky decomposition of the electron repulsion integrals
     2) Preparation of MO basis and integrals
     3) Calculation of the ground state (diis algorithm)
     4) Calculation of the excited state (davidson algorithm)


  1) Cholesky decomposition of the electron repulsion integrals

   - Cholesky decomposition of electronic repulsion integrals solver
  ---------------------------------------------------------------------

  Performs a Cholesky decomposition of the two-electron electronic repulsion 
  integrals in the atomic orbital basis,

  (ab|cd) = sum_J L_ab^J L_cd^J.

  Once the Cholesky basis has been determined, the vectors L^J are constructed 
  and stored to disk. These may either be used directly, or be transformed 
  to the MO basis for use in post-HF calculations. For more information, 
  see S. D. Folkestad, E. F. Kjønstad and H. Koch, JCP, 150(19), (2019)

  - Cholesky decomposition settings:

     Target threshold is:   0.10E-11
     Span factor:           0.10E-01
     Max qual:                  1000

  - Cholesky decomposition ao details:

     Total number of AOs:                    29
     Total number of shell pairs:           120
     Total number of AO pairs:              435

     Significant shell pairs:               118
     Significant AO pairs:                  431

     Construct shell pairs:                 120
     Construct AO pairs:                    435

  Iter.  #Sign. ao pairs / shell pairs   Max diagonal    #Qualified    #Cholesky    Cholesky array size
  -------------------------------------------------------------------------------------------------------
     1               406 /     108       0.47383E+01         147             42             17052
     2               319 /      93       0.47165E-01         234            111             35409
     3               250 /      76       0.46944E-03         178            183             45750
     4               187 /      55       0.38270E-05         145            265             49555
     5                87 /      25       0.38106E-07          78            324             28188
     6                21 /       3       0.37202E-09          43            349              7329
     7                 0 /       0       0.36652E-11           7            354                 0
  -------------------------------------------------------------------------------------------------------

  - Summary of Cholesky decomposition of electronic repulsion integrals:

     Final number of Cholesky vectors: 354

 - Testing the Cholesky decomposition decomposition electronic repulsion integrals:

     Maximal difference between approximate and actual diagonal:              0.7161E-12
     Minimal element of difference between approximate and actual diagonal:  -0.1238E-14

  - Settings for integral handling:

     Cholesky vectors in memory: True
     ERI matrix in memory:       False
     T1 ERI matrix in memory:    False

  - Finished decomposing the ERIs.

     Total wall time (sec):              0.14058
     Total cpu time (sec):               0.28399


  2) Preparation of MO basis and integrals

     The smallest diagonal after decomposition is:  -0.5551E-16

  - MLCCSD orbital partitioning:

     Orbital type: cholesky-pao

     Number occupied ccsd orbitals:    5
     Number virtual ccsd orbitals:    13

     Number occupied cc2 orbitals:     1
     Number virtual cc2 orbitals:     10

     Number occupied ccs orbitals:     0
     Number virtual ccs orbitals:      0


  3) Calculation of the ground state (diis algorithm)

   - DIIS coupled cluster ground state solver
  ----------------------------------------------

  A DIIS CC ground state amplitude equations solver. It uses an extrapolation 
  of previous quasi-Newton perturbation theory estimates of the next amplitudes. 
  See Helgaker et al., Molecular Electronic Structure Theory, Chapter 
  13.

  - CC ground state solver settings:

     Residual threshold:            0.1000E-11
     Energy threshold:              0.1000E-11
     Max number of iterations:      100

  - DIIS tool settings:

     DIIS dimension:   8

     Storage (cc_gs_diis_e): file
     Storage (cc_gs_diis_x): file

  Iteration    Energy (a.u.)        |omega|       Delta E (a.u.)
  ---------------------------------------------------------------
    1           -79.284550926154     0.5031E+00     0.7928E+02
    2           -79.089808864747     0.4979E-01     0.1947E+00
    3           -79.094073188389     0.1028E-01     0.4264E-02
    4           -79.093501949803     0.2797E-02     0.5712E-03
    5           -79.093138216889     0.8785E-03     0.3637E-03
    6           -79.093142109583     0.2818E-03     0.3893E-05
    7           -79.093157440247     0.6555E-04     0.1533E-04
    8           -79.093160653926     0.2541E-04     0.3214E-05
    9           -79.093161631255     0.8987E-05     0.9773E-06
   10           -79.093161495828     0.3480E-05     0.1354E-06
   11           -79.093161278474     0.1153E-05     0.2174E-06
   12           -79.093161242936     0.5169E-06     0.3554E-07
   13           -79.093161249551     0.2083E-06     0.6615E-08
   14           -79.093161260679     0.8287E-07     0.1113E-07
   15           -79.093161260784     0.3637E-07     0.1058E-09
   16           -79.093161259988     0.1208E-07     0.7965E-09
   17           -79.093161259593     0.2913E-08     0.3952E-09
   18           -79.093161259474     0.7777E-09     0.1192E-09
   19           -79.093161259463     0.2273E-09     0.1010E-10
   20           -79.093161259463     0.8819E-10     0.2842E-12
   21           -79.093161259464     0.3274E-10     0.5542E-12
   22           -79.093161259465     0.1406E-10     0.8811E-12
   23           -79.093161259465     0.7381E-11     0.2132E-12
   24           -79.093161259465     0.3004E-11     0.8527E-13
   25           -79.093161259465     0.1021E-11     0.4263E-13
   26           -79.093161259465     0.3709E-12     0.1421E-13
  ---------------------------------------------------------------
  Convergence criterion met in 26 iterations!

  - Ground state summary:

     Final ground state energy (a.u.):   -79.093161259465

     Correlation energy (a.u.):           -0.249309565834

     Largest single amplitudes:
     -----------------------------------
        a       i         t(a,i)
     -----------------------------------
        1      4       -0.016127176452
        5      3        0.010020008332
       23      3       -0.006082097112
       12      3       -0.005932315868
        8      4       -0.005813016363
        2      3       -0.005063177613
        4      5        0.004870436137
        6      2        0.004562503304
        8      2       -0.003852475909
       14      3       -0.003741984247
     ------------------------------------

  - Finished solving the MLCCSD ground state equations

     Total wall time (sec):              0.13814
     Total cpu time (sec):               0.27391


  4) Calculation of the excited state (davidson algorithm)
     Calculating right vectors

   - Davidson coupled cluster excited state solver
  ---------------------------------------------------

  A Davidson solver that calculates the lowest eigenvalues and the right 
  or left eigenvectors of the Jacobian matrix, A. The eigenvalue problem 
  is solved in a reduced space, the dimension of which is expanded until 
  the convergence criteria are met.

  A complete description of the algorithm can be found in E. R. Davidson, 
  J. Comput. Phys. 17, 87 (1975).

  - Settings for coupled cluster excited state solver (Davidson):

     Calculation type:    valence
     Excitation vectors:  right

     Residual threshold:            0.1000E-11
     Energy threshold:              0.1000E-11

     Number of singlet states:               4
     Max number of iterations:             100

   - Davidson tool settings:

     Number of parameters:                 9729
     Number of requested solutions:           4
     Max reduced space dimension:           100

     Storage (cc_es_davidson_trials): file
     Storage (cc_es_davidson_transforms): file

  Iteration:                  1
  Reduced space dimension:    4

   Root  Eigenvalue (Re)   Eigenvalue (Im)    |residual|   Delta E (Re)
  ------------------------------------------------------------------------
     1   0.457037040610    0.000000000000     0.5777E+00   0.4570E+00
     2   0.591228037336    0.000000000000     0.5827E+00   0.5912E+00
     3   0.593328055633    0.000000000000     0.5741E+00   0.5933E+00
     4   0.646369893037    0.000000000000     0.5326E+00   0.6464E+00
  ------------------------------------------------------------------------

  Iteration:                  2
  Reduced space dimension:    8

   Root  Eigenvalue (Re)   Eigenvalue (Im)    |residual|   Delta E (Re)
  ------------------------------------------------------------------------
     1   0.283283056660    0.000000000000     0.2470E+00   0.1738E+00
     2   0.382576792123    0.000000000000     0.3340E+00   0.2087E+00
     3   0.399239597457    0.000000000000     0.2616E+00   0.1941E+00
     4   0.498729721058    0.000000000000     0.2356E+00   0.1476E+00
  ------------------------------------------------------------------------

  Iteration:                  3
  Reduced space dimension:   12

   Root  Eigenvalue (Re)   Eigenvalue (Im)    |residual|   Delta E (Re)
  ------------------------------------------------------------------------
     1   0.251290414784    0.000000000000     0.1091E+00   0.3199E-01
     2   0.314978080064    0.000000000000     0.1580E+00   0.6760E-01
     3   0.362302690415    0.000000000000     0.1154E+00   0.3694E-01
     4   0.468329682522    0.000000000000     0.1080E+00   0.3040E-01
  ------------------------------------------------------------------------

  Iteration:                  4
  Reduced space dimension:   16

   Root  Eigenvalue (Re)   Eigenvalue (Im)    |residual|   Delta E (Re)
  ------------------------------------------------------------------------
     1   0.247130190126    0.000000000000     0.4930E-01   0.4160E-02
     2   0.308472148300    0.000000000000     0.5602E-01   0.6506E-02
     3   0.356748873344    0.000000000000     0.5153E-01   0.5554E-02
     4   0.464083830368    0.000000000000     0.5803E-01   0.4246E-02
  ------------------------------------------------------------------------

  Iteration:                  5
  Reduced space dimension:   20

   Root  Eigenvalue (Re)   Eigenvalue (Im)    |residual|   Delta E (Re)
  ------------------------------------------------------------------------
     1   0.246796302927    0.000000000000     0.2350E-01   0.3339E-03
     2   0.307480809702    0.000000000000     0.1727E-01   0.9913E-03
     3   0.356475771673    0.000000000000     0.2465E-01   0.2731E-03
     4   0.462409442657    0.000000000000     0.4900E-01   0.1674E-02
  ------------------------------------------------------------------------

  Iteration:                  6
  Reduced space dimension:   24

   Root  Eigenvalue (Re)   Eigenvalue (Im)    |residual|   Delta E (Re)
  ------------------------------------------------------------------------
     1   0.246078500025    0.000000000000     0.1191E-01   0.7178E-03
     2   0.307066085152    0.000000000000     0.5831E-02   0.4147E-03
     3   0.355810033538    0.000000000000     0.1154E-01   0.6657E-03
     4   0.455977609382    0.000000000000     0.1067E+00   0.6432E-02
  ------------------------------------------------------------------------

  Iteration:                  7
  Reduced space dimension:   28

   Root  Eigenvalue (Re)   Eigenvalue (Im)    |residual|   Delta E (Re)
  ------------------------------------------------------------------------
     1   0.245960161956    0.000000000000     0.4240E-02   0.1183E-03
     2   0.307100732871    0.000000000000     0.1751E-02   0.3465E-04
     3   0.355690684784    0.000000000000     0.4375E-02   0.1193E-03
     4   0.430795992169    0.000000000000     0.1844E+00   0.2518E-01
  ------------------------------------------------------------------------

  Iteration:                  8
  Reduced space dimension:   32

   Root  Eigenvalue (Re)   Eigenvalue (Im)    |residual|   Delta E (Re)
  ------------------------------------------------------------------------
     1   0.245954854293    0.000000000000     0.1179E-02   0.5308E-05
     2   0.307087502028    0.000000000000     0.5627E-03   0.1323E-04
     3   0.355693890461    0.000000000000     0.1512E-02   0.3206E-05
     4   0.416745674364    0.000000000000     0.8719E-01   0.1405E-01
  ------------------------------------------------------------------------

  Iteration:                  9
  Reduced space dimension:   36

   Root  Eigenvalue (Re)   Eigenvalue (Im)    |residual|   Delta E (Re)
  ------------------------------------------------------------------------
     1   0.245954905265    0.000000000000     0.3526E-03   0.5097E-07
     2   0.307085299977    0.000000000000     0.2010E-03   0.2202E-05
     3   0.355714345554    0.000000000000     0.5439E-03   0.2046E-04
     4   0.414045735309    0.000000000000     0.3012E-01   0.2700E-02
  ------------------------------------------------------------------------

  Iteration:                 10
  Reduced space dimension:   40

   Root  Eigenvalue (Re)   Eigenvalue (Im)    |residual|   Delta E (Re)
  ------------------------------------------------------------------------
     1   0.245950774083    0.000000000000     0.1388E-03   0.4131E-05
     2   0.307085051735    0.000000000000     0.6981E-04   0.2482E-06
     3   0.355708820031    0.000000000000     0.2276E-03   0.5526E-05
     4   0.413850857285    0.000000000000     0.1058E-01   0.1949E-03
  ------------------------------------------------------------------------

  Iteration:                 11
  Reduced space dimension:   44

   Root  Eigenvalue (Re)   Eigenvalue (Im)    |residual|   Delta E (Re)
  ------------------------------------------------------------------------
     1   0.245947507663    0.000000000000     0.5160E-04   0.3266E-05
     2   0.307084268435    0.000000000000     0.2327E-04   0.7833E-06
     3   0.355706706617    0.000000000000     0.8367E-04   0.2113E-05
     4   0.413875220942    0.000000000000     0.4022E-02   0.2436E-04
  ------------------------------------------------------------------------

  Iteration:                 12
  Reduced space dimension:   48

   Root  Eigenvalue (Re)   Eigenvalue (Im)    |residual|   Delta E (Re)
  ------------------------------------------------------------------------
     1   0.245946870283    0.000000000000     0.1577E-04   0.6374E-06
     2   0.307084323832    0.000000000000     0.8144E-05   0.5540E-07
     3   0.355706665311    0.000000000000     0.2950E-04   0.4131E-07
     4   0.413867527663    0.000000000000     0.1413E-02   0.7693E-05
  ------------------------------------------------------------------------

  Iteration:                 13
  Reduced space dimension:   52

   Root  Eigenvalue (Re)   Eigenvalue (Im)    |residual|   Delta E (Re)
  ------------------------------------------------------------------------
     1   0.245946745824    0.000000000000     0.4730E-05   0.1245E-06
     2   0.307084373254    0.000000000000     0.2957E-05   0.4942E-07
     3   0.355706711909    0.000000000000     0.1031E-04   0.4660E-07
     4   0.413867511825    0.000000000000     0.5143E-03   0.1584E-07
  ------------------------------------------------------------------------

  Iteration:                 14
  Reduced space dimension:   56

   Root  Eigenvalue (Re)   Eigenvalue (Im)    |residual|   Delta E (Re)
  ------------------------------------------------------------------------
     1   0.245946726395    0.000000000000     0.1523E-05   0.1943E-07
     2   0.307084359347    0.000000000000     0.1158E-05   0.1391E-07
     3   0.355706669951    0.000000000000     0.4710E-05   0.4196E-07
     4   0.413866903112    0.000000000000     0.2498E-03   0.6087E-06
  ------------------------------------------------------------------------

  Iteration:                 15
  Reduced space dimension:   60

   Root  Eigenvalue (Re)   Eigenvalue (Im)    |residual|   Delta E (Re)
  ------------------------------------------------------------------------
     1   0.245946719289    0.000000000000     0.6139E-06   0.7106E-08
     2   0.307084364232    0.000000000000     0.6405E-06   0.4884E-08
     3   0.355706680787    0.000000000000     0.2277E-05   0.1084E-07
     4   0.413867014674    0.000000000000     0.1416E-03   0.1116E-06
  ------------------------------------------------------------------------

  Iteration:                 16
  Reduced space dimension:   64

   Root  Eigenvalue (Re)   Eigenvalue (Im)    |residual|   Delta E (Re)
  ------------------------------------------------------------------------
     1   0.245946718441    0.000000000000     0.2161E-06   0.8483E-09
     2   0.307084363985    0.000000000000     0.2756E-06   0.2462E-09
     3   0.355706693373    0.000000000000     0.9829E-06   0.1259E-07
     4   0.413866892191    0.000000000000     0.6306E-04   0.1225E-06
  ------------------------------------------------------------------------

  Iteration:                 17
  Reduced space dimension:   68

   Root  Eigenvalue (Re)   Eigenvalue (Im)    |residual|   Delta E (Re)
  ------------------------------------------------------------------------
     1   0.245946716052    0.000000000000     0.6875E-07   0.2388E-08
     2   0.307084362219    0.000000000000     0.1072E-06   0.1766E-08
     3   0.355706692140    0.000000000000     0.3698E-06   0.1232E-08
     4   0.413867021713    0.000000000000     0.2516E-04   0.1295E-06
  ------------------------------------------------------------------------

  Iteration:                 18
  Reduced space dimension:   72

   Root  Eigenvalue (Re)   Eigenvalue (Im)    |residual|   Delta E (Re)
  ------------------------------------------------------------------------
     1   0.245946715513    0.000000000000     0.1947E-07   0.5391E-09
     2   0.307084362357    0.000000000000     0.3518E-07   0.1374E-09
     3   0.355706692624    0.000000000000     0.1239E-06   0.4838E-09
     4   0.413866991784    0.000000000000     0.9307E-05   0.2993E-07
  ------------------------------------------------------------------------

  Iteration:                 19
  Reduced space dimension:   76

   Root  Eigenvalue (Re)   Eigenvalue (Im)    |residual|   Delta E (Re)
  ------------------------------------------------------------------------
     1   0.245946715701    0.000000000000     0.5843E-08   0.1877E-09
     2   0.307084362644    0.000000000000     0.1094E-07   0.2867E-09
     3   0.355706692530    0.000000000000     0.4087E-07   0.9434E-10
     4   0.413867004406    0.000000000000     0.3143E-05   0.1262E-07
  ------------------------------------------------------------------------

  Iteration:                 20
  Reduced space dimension:   80

   Root  Eigenvalue (Re)   Eigenvalue (Im)    |residual|   Delta E (Re)
  ------------------------------------------------------------------------
     1   0.245946715744    0.000000000000     0.1875E-08   0.4247E-10
     2   0.307084362657    0.000000000000     0.3312E-08   0.1381E-10
     3   0.355706692729    0.000000000000     0.1355E-07   0.1989E-09
     4   0.413866998160    0.000000000000     0.1034E-05   0.6246E-08
  ------------------------------------------------------------------------

  Iteration:                 21
  Reduced space dimension:   84

   Root  Eigenvalue (Re)   Eigenvalue (Im)    |residual|   Delta E (Re)
  ------------------------------------------------------------------------
     1   0.245946715748    0.000000000000     0.6013E-09   0.4761E-11
     2   0.307084362656    0.000000000000     0.1060E-08   0.1429E-11
     3   0.355706692641    0.000000000000     0.4665E-08   0.8762E-10
     4   0.413866996727    0.000000000000     0.3391E-06   0.1433E-08
  ------------------------------------------------------------------------

  Iteration:                 22
  Reduced space dimension:   88

   Root  Eigenvalue (Re)   Eigenvalue (Im)    |residual|   Delta E (Re)
  ------------------------------------------------------------------------
     1   0.245946715751    0.000000000000     0.1637E-09   0.2894E-11
     2   0.307084362659    0.000000000000     0.3209E-09   0.2893E-11
     3   0.355706692615    0.000000000000     0.1516E-08   0.2580E-10
     4   0.413866997162    0.000000000000     0.1143E-06   0.4346E-09
  ------------------------------------------------------------------------

  Iteration:                 23
  Reduced space dimension:   92

   Root  Eigenvalue (Re)   Eigenvalue (Im)    |residual|   Delta E (Re)
  ------------------------------------------------------------------------
     1   0.245946715752    0.000000000000     0.4599E-10   0.4763E-12
     2   0.307084362658    0.000000000000     0.1118E-09   0.1158E-11
     3   0.355706692610    0.000000000000     0.5171E-09   0.5435E-11
     4   0.413866997394    0.000000000000     0.4430E-07   0.2320E-09
  ------------------------------------------------------------------------

  Iteration:                 24
  Reduced space dimension:   96

   Root  Eigenvalue (Re)   Eigenvalue (Im)    |residual|   Delta E (Re)
  ------------------------------------------------------------------------
     1   0.245946715752    0.000000000000     0.1472E-10   0.3496E-12
     2   0.307084362658    0.000000000000     0.3774E-10   0.1256E-12
     3   0.355706692609    0.000000000000     0.1831E-09   0.1217E-11
     4   0.413866997255    0.000000000000     0.1950E-07   0.1388E-09
  ------------------------------------------------------------------------

  Iteration:                 25
  Reduced space dimension:  100

   Root  Eigenvalue (Re)   Eigenvalue (Im)    |residual|   Delta E (Re)
  ------------------------------------------------------------------------
     1   0.245946715752    0.000000000000     0.4282E-11   0.1444E-12
     2   0.307084362658    0.000000000000     0.1302E-10   0.5241E-12
     3   0.355706692610    0.000000000000     0.7021E-10   0.1140E-11
     4   0.413866997254    0.000000000000     0.8095E-08   0.1780E-11
  ------------------------------------------------------------------------

  Iteration:                 26
  Reduced space dimension:    4

   Root  Eigenvalue (Re)   Eigenvalue (Im)    |residual|   Delta E (Re)
  ------------------------------------------------------------------------
     1   0.245946715752    0.000000000000     0.4282E-11   0.3803E-14
     2   0.307084362658    0.000000000000     0.1302E-10   0.5551E-16
     3   0.355706692610    0.000000000000     0.7021E-10   0.1665E-15
     4   0.413866997254    0.000000000000     0.8095E-08   0.4441E-15
  ------------------------------------------------------------------------

  Iteration:                 27
  Reduced space dimension:    8

   Root  Eigenvalue (Re)   Eigenvalue (Im)    |residual|   Delta E (Re)
  ------------------------------------------------------------------------
     1   0.245946715752    0.000000000000     0.1499E-11   0.2262E-13
     2   0.307084362658    0.000000000000     0.4831E-11   0.7960E-13
     3   0.355706692610    0.000000000000     0.2868E-10   0.2314E-12
     4   0.413866997264    0.000000000000     0.3325E-08   0.1062E-10
  ------------------------------------------------------------------------

  Iteration:                 28
  Reduced space dimension:   12

   Root  Eigenvalue (Re)   Eigenvalue (Im)    |residual|   Delta E (Re)
  ------------------------------------------------------------------------
     1   0.245946715752    0.000000000000     0.5702E-12   0.1679E-13
     2   0.307084362658    0.000000000000     0.1866E-11   0.3725E-13
     3   0.355706692610    0.000000000000     0.1321E-10   0.1532E-12
     4   0.413866997261    0.000000000000     0.1486E-08   0.2925E-11
  ------------------------------------------------------------------------

  Iteration:                 29
  Reduced space dimension:   15

   Root  Eigenvalue (Re)   Eigenvalue (Im)    |residual|   Delta E (Re)
  ------------------------------------------------------------------------
     1   0.245946715752    0.000000000000     0.5458E-12   0.1610E-14
     2   0.307084362658    0.000000000000     0.6391E-12   0.9825E-14
     3   0.355706692610    0.000000000000     0.4488E-11   0.9437E-14
     4   0.413866997256    0.000000000000     0.5861E-09   0.5394E-11
  ------------------------------------------------------------------------

  Iteration:                 30
  Reduced space dimension:   17

   Root  Eigenvalue (Re)   Eigenvalue (Im)    |residual|   Delta E (Re)
  ------------------------------------------------------------------------
     1   0.245946715752    0.000000000000     0.5426E-12   0.2887E-14
     2   0.307084362658    0.000000000000     0.4111E-12   0.2220E-14
     3   0.355706692610    0.000000000000     0.1723E-11   0.1593E-13
     4   0.413866997257    0.000000000000     0.2343E-09   0.1555E-11
  ------------------------------------------------------------------------

  Iteration:                 31
  Reduced space dimension:   19

   Root  Eigenvalue (Re)   Eigenvalue (Im)    |residual|   Delta E (Re)
  ------------------------------------------------------------------------
     1   0.245946715752    0.000000000000     0.5403E-12   0.3053E-15
     2   0.307084362658    0.000000000000     0.3549E-12   0.1776E-14
     3   0.355706692610    0.000000000000     0.5911E-12   0.2315E-13
     4   0.413866997258    0.000000000000     0.8383E-10   0.8553E-12
  ------------------------------------------------------------------------

  Iteration:                 32
  Reduced space dimension:   20

   Root  Eigenvalue (Re)   Eigenvalue (Im)    |residual|   Delta E (Re)
  ------------------------------------------------------------------------
     1   0.245946715752    0.000000000000     0.5405E-12   0.3553E-14
     2   0.307084362658    0.000000000000     0.3492E-12   0.3331E-15
     3   0.355706692610    0.000000000000     0.4474E-12   0.4052E-14
     4   0.413866997258    0.000000000000     0.3044E-10   0.9553E-13
  ------------------------------------------------------------------------

  Iteration:                 33
  Reduced space dimension:   21

   Root  Eigenvalue (Re)   Eigenvalue (Im)    |residual|   Delta E (Re)
  ------------------------------------------------------------------------
     1   0.245946715752    0.000000000000     0.5403E-12   0.1860E-14
     2   0.307084362658    0.000000000000     0.3491E-12   0.8327E-15
     3   0.355706692610    0.000000000000     0.4281E-12   0.1665E-15
     4   0.413866997258    0.000000000000     0.1151E-10   0.4607E-13
  ------------------------------------------------------------------------

  Iteration:                 34
  Reduced space dimension:   22

   Root  Eigenvalue (Re)   Eigenvalue (Im)    |residual|   Delta E (Re)
  ------------------------------------------------------------------------
     1   0.245946715752    0.000000000000     0.5403E-12   0.5551E-16
     2   0.307084362658    0.000000000000     0.3494E-12   0.1110E-15
     3   0.355706692610    0.000000000000     0.4272E-12   0.3331E-15
     4   0.413866997258    0.000000000000     0.5092E-11   0.2437E-13
  ------------------------------------------------------------------------

  Iteration:                 35
  Reduced space dimension:   23

   Root  Eigenvalue (Re)   Eigenvalue (Im)    |residual|   Delta E (Re)
  ------------------------------------------------------------------------
     1   0.245946715752    0.000000000000     0.5402E-12   0.5551E-16
     2   0.307084362658    0.000000000000     0.3475E-12   0.9992E-15
     3   0.355706692610    0.000000000000     0.4266E-12   0.1110E-15
     4   0.413866997258    0.000000000000     0.2658E-11   0.2021E-13
  ------------------------------------------------------------------------

  Iteration:                 36
  Reduced space dimension:   24

   Root  Eigenvalue (Re)   Eigenvalue (Im)    |residual|   Delta E (Re)
  ------------------------------------------------------------------------
     1   0.245946715752    0.000000000000     0.5402E-12   0.0000E+00
     2   0.307084362658    0.000000000000     0.3472E-12   0.2220E-15
     3   0.355706692610    0.000000000000     0.4278E-12   0.3331E-15
     4   0.413866997258    0.000000000000     0.1836E-11   0.8271E-14
  ------------------------------------------------------------------------

  Iteration:                 37
  Reduced space dimension:   25

   Root  Eigenvalue (Re)   Eigenvalue (Im)    |residual|   Delta E (Re)
  ------------------------------------------------------------------------
     1   0.245946715752    0.000000000000     0.5402E-12   0.0000E+00
     2   0.307084362658    0.000000000000     0.3478E-12   0.1554E-14
     3   0.355706692610    0.000000000000     0.4223E-12   0.1443E-14
     4   0.413866997258    0.000000000000     0.1315E-11   0.6495E-14
  ------------------------------------------------------------------------

  Iteration:                 38
  Reduced space dimension:   26

   Root  Eigenvalue (Re)   Eigenvalue (Im)    |residual|   Delta E (Re)
  ------------------------------------------------------------------------
     1   0.245946715752    0.000000000000     0.5402E-12   0.1110E-15
     2   0.307084362658    0.000000000000     0.3469E-12   0.1277E-14
     3   0.355706692610    0.000000000000     0.4194E-12   0.5551E-15
     4   0.413866997258    0.000000000000     0.7459E-12   0.5551E-15
  ------------------------------------------------------------------------
  Convergence criterion met in 38 iterations!

  - Excitation vector amplitudes:

     Electronic state nr. 1

     Energy (Hartree):                  0.245946715752
     Fraction singles (|R1|/|R|):       0.973604848264

     MLCC diagnostics:

     |R1^internal|/|R| =       0.936474326297
     |R1^internal|/|R1| =      0.961862841960

     Largest single amplitudes:
     -----------------------------------
        a       i         R(a,i)
     -----------------------------------
        1      5       -0.932226011270
       16      5        0.237732531559
       15      5        0.117946196268
       10      5        0.054863584308
        6      5        0.046352217907
        3      5        0.036650631150
       13      5       -0.028805012546
        8      5        0.015706906502
       19      5       -0.015187083676
        1      6        0.012169378872
     ------------------------------------

     Electronic state nr. 2

     Energy (Hartree):                  0.307084362658
     Fraction singles (|R1|/|R|):       0.973845080669

     MLCC diagnostics:

     |R1^internal|/|R| =       0.818497937443
     |R1^internal|/|R1| =      0.840480640802

     Largest single amplitudes:
     -----------------------------------
        a       i         R(a,i)
     -----------------------------------
        2      5       -0.794477010602
       14      5       -0.504334666724
        5      5       -0.173909686647
       23      5       -0.148877399804
       12      5       -0.091623750789
       18      5        0.039440535575
       22      5       -0.012299762365
        2      6        0.009595744195
       14      6        0.007785668538
        6      5        0.005875384419
     ------------------------------------

     Electronic state nr. 3

     Energy (Hartree):                  0.355706692610
     Fraction singles (|R1|/|R|):       0.979431140493

     MLCC diagnostics:

     |R1^internal|/|R| =       0.936653883116
     |R1^internal|/|R1| =      0.956324385035

     Largest single amplitudes:
     -----------------------------------
        a       i         R(a,i)
     -----------------------------------
        1      4       -0.915147365098
       16      4        0.250877046661
        2      3        0.135834053786
       15      4        0.124221136911
        6      4        0.084933724931
        1      2        0.073374273461
       10      4        0.052860812468
       14      3        0.047488211984
       13      4       -0.043515417323
        4      5       -0.040237403984
     ------------------------------------

     Electronic state nr. 4

     Energy (Hartree):                  0.413866997258
     Fraction singles (|R1|/|R|):       0.974217540710

     MLCC diagnostics:

     |R1^internal|/|R| =       0.803940736891
     |R1^internal|/|R1| =      0.825216856910

     Largest single amplitudes:
     -----------------------------------
        a       i         R(a,i)
     -----------------------------------
        2      4        0.746723244613
       14      4        0.525164332638
        1      3       -0.208729119476
        5      4        0.179232324567
       23      4        0.149099781933
       12      4        0.105067617968
       16      3        0.048138913110
       18      4       -0.036350607706
       15      3        0.021569336842
       10      3        0.021105133701
     ------------------------------------

     - Electronic excitation energies:

                                      Excitation energy
                          ------------------------------------------
      State                (Hartree)             (eV)
     ---------------------------------------------------------------
        1                  0.245946715752        6.692551022686
        2                  0.307084362658        8.356191133004
        3                  0.355706692610        9.679272122500
        4                  0.413866997258       11.261894623328
     ---------------------------------------------------------------
     eV/Hartree (CODATA 2014): 27.21138602

  - Finished solving the MLCCSD excited state equations (right)

     Total wall time (sec):              0.75255
     Total cpu time (sec):               1.50819

  - Timings for the MLCCSD excited state calculation

     Total wall time (sec):              1.04080
     Total cpu time (sec):               2.08362

  ------------------------------------------------------------

  Peak memory usage during the execution of eT: 13.564488 MB

  Total wall time in eT (sec):              1.37776
  Total cpu time in eT (sec):               2.71982

  Calculation ended: 2021-06-07 12:51:39 UTC +02:00

  - Implementation references:

     eT: https://doi.org/10.1063/5.0004713
     MLCC2 and MLCCSD: https://doi.org/10.1021/acs.jctc.9b00701
     Cholesky decomposition of ERIs: https://doi.org/10.1063/1.5083802

  eT terminated successfully!
